^C:\USERS\SCHUR\DOCUMENTS\GITHUB\ILLUMINATOR9000\ILLUMINATOR9000\ILLUMINATOR9000\PCH.CPP
C:\USERS\SCHUR\DOCUMENTS\GITHUB\ILLUMINATOR9000\ILLUMINATOR9000\ILLUMINATOR9000\RELEASE\ILLUMINATOR9000.PCH
C:\USERS\SCHUR\DOCUMENTS\GITHUB\ILLUMINATOR9000\ILLUMINATOR9000\ILLUMINATOR9000\RELEASE\VC141.PDB
C:\USERS\SCHUR\DOCUMENTS\GITHUB\ILLUMINATOR9000\ILLUMINATOR9000\ILLUMINATOR9000\RELEASE\PCH.OBJ
